нояб. 12, 2022 8:41:46 PM Main main
INFO: Program have started
нояб. 12, 2022 8:41:46 PM Check checkResponse
INFO: Checked User ID -- OK
нояб. 12, 2022 8:41:46 PM Check checkResponse
INFO: {"can_access_closed":true,"last_name":"Малоохтинская","id":537195738,"first_name":"Библиотека","is_closed":false}
нояб. 12, 2022 8:41:46 PM Check checkResponse
INFO: {"can_invite":0,"member":1}
нояб. 12, 2022 8:41:46 PM Main main
INFO: Program have started
нояб. 12, 2022 8:41:46 PM Check checkResponse
INFO: Checked User ID -- Account is deleted!
нояб. 12, 2022 8:41:46 PM Check checkResponse
INFO: {"last_name":"","id":7841773,"first_name":"DELETED","deactivated":"deleted"}
нояб. 12, 2022 8:41:46 PM Check checkResponse
INFO: {"can_invite":1,"member":0}
